…
As first step, let's separate out the sandwiches into individual observations using the handy `tidyr` function, `separate_rows()`. 


```r
sw %>% 
    separate_rows(sandwiches, sep = "; ") 
```

```
## # A tibble: 25 x 2
##    names   sandwiches   
##    <chr>   <chr>        
##  1 Abby    Denver       
##  2 Abby    BLT          
##  3 Abby    Torta ahogada
##  4 Abby    Barbecue     
##  5 Abigail BLT          
##  6 Abigail Ftira        
##  7 Abigail Primanti     
##  8 Abigail Ice cream    
##  9 Abigail Choripán     
## 10 Adam    Corned beef  
## # ... with 15 more rows
```

Keep in mind that omitting the space in the separator may cause some of the results not to match up. For example, "BLT" and " BLT" would require an extra cleaning step, such as `mutate(sandwiches = str_trim(sandwiches))`.

Next, we can count the sandwiches to determine which type is the most popular. Adding `sort = TRUE` brings the most popular sandwich to the top of the tibble.


```r
sw %>% 
    separate_rows(sandwiches, sep = "; ") %>% 
    count(sandwiches, sort = TRUE)
```

```
## # A tibble: 22 x 2
##    sandwiches               n
##    <chr>                <int>
##  1 Dagwood                  3
##  2 BLT                      2
##  3 Barbecue                 1
##  4 Beschuit met muisjes     1
##  5 Cheesesteak              1
##  6 Chicken salad            1
##  7 Choripán                 1
##  8 Corned beef              1
##  9 Denver                   1
## 10 Fried brain              1
## # ... with 12 more rows
```
…
